graph "Transmission Line Namkhai Norbu" {

# first install: graphviz
# than execute this: dot -Gstylesheet=transmissonline.css -Tsvg transmissionline.gv -o transmissionline.svg


# Top -> Bottom
  rankdir = TB;

# splines
  splines=polyline;


# Timeline
    a -- be -- 4 -- 5 -- 6 -- 7 [style="invis"];
    be -- 8 -- 9 -- 10 --11 -- 12 -- 13 --14 -- 15 -- 16 -- 17 -- 18 -- 19 -- 20 -- 21;

# Personlabel


  sab [
  label="Samantabhadra",
  shape=plaintext,
  href="",
  tooltip="Dharmakaya\nmind-to-mind transmission",
  ]

  b5f [
  label="Buddhas of the five families\nVajrapani, Vajasattva",
  shape=plaintext,
  href="",
  tooltip="Sambhogakaya\nmind-to-mind transmission",
  ]

  vda [
  label="Vajadhara",
  shape=plaintext,
  href="",
  tooltip="Sambhogakaya\nmind-to-mind transmission",
  ]

  t12 [
  label="12 Teachers",
  shape=plaintext,
  href="",
  tooltip="Nirmanakaya\nmind-to-mind transmission",
  ]

  gad [
  label="Garab Dorje\nPrahevajra",
  shape=plaintext,
  href="https://en.wikipedia.org/wiki/Garab_Dorje",
  tooltip="Transmission though symbols",
  ]

  mam [
  label="Manjushrimitra\n55CE",
  shape=plaintext,
  href="https://en.wikipedia.org/wiki/Ma%C3%B1ju%C5%9Br%C4%ABmitra",
  tooltip="Transmission though symbols",
  ]

  shs [
  label="Shri Simba",
  shape=plaintext,
  href="http://rywiki.tsadra.org/index.php/Shri_Singha",
  tooltip="Transmission though symbols",
  ]

  vir [
  label="Vimalaritra",
  shape=plaintext,
  href="https://de.wikipedia.org/wiki/Vimalamitra",
  tooltip="Oral Transmission",
  ]

  ntz [
  label="Nyang Tingdzin Zangpo",
  shape=plaintext,
  href="http://www.chinabuddhismencyclopedia.com/en/index.php/Nyang_Tingdzin_Zangpo",
  tooltip="Oral Transmission",
  ]

  gur [
  label="Padmakara\nGuru Rinpoche",
  shape=plaintext,
  href="https://de.wikipedia.org/wiki/Padmasambhava",
  tooltip="Oral Transmission",
  ]

  trd [
  label="King Trisong Detsen\n742 - 796",
  shape=plaintext,
  href="https://de.wikipedia.org/wiki/Thrisong_Detsen",
  tooltip="Oral Transmission",
  ]

  blw [
  label="Be Lodrö Wangchuck",
  shape=plaintext,
  href="https://www.rigpawiki.org/index.php?title=B%C3%A9_Lodr%C3%B6_Wangchuk",
  tooltip="Oral Transmission",
  ]

  drb [
  label="Drom Rinchen Bar",
  shape=plaintext,
  href="https://www.rigpawiki.org/index.php?title=Drom_Rinchen_Bar",
  tooltip="Oral Transmission",
  ]

  dlg [
  label="Dangma Lhundrup Gyaltsen",
  shape=plaintext,
  href="https://www.rigpawiki.org/index.php?title=Dangma_Lhundrup_Gyaltsen",
  tooltip="Oral Transmission",
  ]

  csw [
  label="Chetsün Seng-ge Wangchuk",
  shape=plaintext,
  href="https://www.rigpawiki.org/index.php?title=Chets%C3%BCn_Seng%C3%A9_Wangchuk",
  tooltip="Oral Transmission",
  ]

  gzt [
  label="Gyalwa Zhangtön Tashi Dorje\n1097 - 1167",
  shape=plaintext,
  href="https://www.rigpawiki.org/index.php?title=Shyangt%C3%B6n_Tashi_Dorje",
  tooltip="Oral Transmission",
  ]

  dkn [
  label="Drupchen Khepa Nyima Bum\n1158 - 1213",
  shape=plaintext,
  href="https://www.rigpawiki.org/index.php?title=Drupchen_Khepa_Nyima_Bum",
  tooltip="Oral Transmission",
  ]

  guj [
  label="Guru Jober\n1196 - 1255",
  shape=plaintext,
  href="https://treasuryoflives.org/biographies/view/Guru-Jober/8891",
  tooltip="Oral Transmission",
  ]

  tsg [
  label="Trulzihik Seng-ge Gyappa",
  shape=plaintext,
  href="",
  tooltip="Oral Transmission",
  ]

  dmd [
  label="Drupchen Melong Dorje\n1243 - 1303",
  shape=plaintext,
  href="https://www.rigpawiki.org/index.php?title=Melong_Dorje",
  tooltip="Oral Transmission",
  ]

  rck [
  label="Rigdzin Chenpo Kumaradza\n1266 - 1343",
  shape=plaintext,
  href="https://www.rigpawiki.org/index.php?title=Rigdzin_Kumaradza",
  tooltip="Oral Transmission",
  ]

  lor [
  label="Longchen Rabjam\nLongchenpa\n1308 - 1363",
  shape=plaintext,
  href="https://de.wikipedia.org/wiki/Longchen_Rabjam",
  tooltip="Oral Transmission",
  ]

  pps [
  label="Princess Pemasel",
  shape=plaintext,
  href="https://www.rigpawiki.org/index.php?title=Pema_Sal",
  tooltip="Oral Transmission",
  ]

  qdc [
  label="Queen Droza Changchub\nMother of Princess Pemasel",
  shape=plaintext,
  href="",
  tooltip="Oral Transmission",
  ]

  yet [
  label="Yeshe Tsogyal",
  shape=plaintext,
  href="https://en.wikipedia.org/wiki/Yeshe_Tsogyal",
  tooltip="Oral Transmission",
  ]

  plt [
  label="Pema Ledreltsal\n1248? - 1307?",
  shape=plaintext,
  href="https://www.rigpawiki.org/index.php?title=Pema_Ledreltsal",
  tooltip="Oral Transmission",
  ]

  glg [
  label="Gyalse Lekpa Gyaltsen\n1290 - 1366",
  shape=plaintext,
  href="https://www.rigpawiki.org/index.php?title=Gyals%C3%A9_Lekden",
  tooltip="Oral Transmission",
  ]

  kdt [
  label="King Dhahena Talo\nGrandfather of Garab Dorje",
  shape=plaintext,
  href="http://rywiki.tsadra.org/index.php/Dhahena_Talo",
  tooltip="",
  ]

  khb [
  label="King Helu Bhadhe\nFather of King Dhahena Talo",
  shape=plaintext,
  href="https://www.lionsroar.com/in-translation-the-view-of-the-conquerors/",
  tooltip="",
  ]

  bre [
  label="Brahmini Effortful\nMother of King Dhahena Talo",
  shape=plaintext,
  href="https://www.lionsroar.com/in-translation-the-view-of-the-conquerors/",
  tooltip="",
  ]

  vac [
  label="Vairotsana",
  shape=plaintext,
  href="https://en.wikipedia.org/wiki/Vairotsana",
  tooltip="Oral Transmission",
  ]

  yun [
  label="Yudra Nyingpo",
  shape=plaintext,
  href="https://en.wikipedia.org/wiki/Yudra_Nyingpo",
  tooltip="Oral Transmission",
  ]

  drd [
  label="Drime Dashar",
  shape=plaintext,
  href="https://www.pdfdrive.com/a-marvelous-garland-of-rare-gems-biographies-of-masters-of-awareness-in-the-dzogchen-lineage-e165330292.html",
  tooltip="Oral Transmission",
  ]

  kcl [
  label="Khenchen Chabdal Lhundrup",
  shape=plaintext,
  href="https://www.pdfdrive.com/a-marvelous-garland-of-rare-gems-biographies-of-masters-of-awareness-in-the-dzogchen-lineage-e165330292.html",
  tooltip="Oral Transmission",
  ]

  gat [
  label="Gyalse Tulku Drakpa Özer\n1356 - 1409",
  shape=plaintext,
  href="http://rywiki.tsadra.org/index.php/Longchenpa",
  tooltip="Oral Transmission",
  ]


  tso [
  label="Trulzihik Sanggye Önpo Sherab Gyatso",
  shape=plaintext,
  href="https://www.pdfdrive.com/a-marvelous-garland-of-rare-gems-biographies-of-masters-of-awareness-in-the-dzogchen-lineage-e165330292.html",
  tooltip="Oral Transmission",
  ]

  gdd [
  label="Gyalse Dawa Drakpa",
  shape=plaintext,
  href="",
  tooltip="Oral Transmission",
  ]

  dk2 [
  label="Drupchen Kunzang Dorje\n 14. -15. Jht",
  shape=plaintext,
  href="https://108thangkas.com/projects/drupchen-kunzang-dorje/",
  tooltip="Oral Transmission"
  ]

  ckg [
  label="Choje Kunga Gyaltsen Palzang\n1497 - 1568",
  shape=plaintext,
  href="https://108thangkas.com/projects/tulku-natsok-rangdrol/",
  tooltip="Oral Transmission"
  ]

  tnr [
  label="Tulku Natsok Rangdrol\n1494 - 1571",
  shape=plaintext,
  href="https://108thangkas.com/projects/tulku-natsok-rangdrol/",
  tooltip="Oral Transmission"
  ]

  ttd [
  label="Tulku Tenzin Drakpa\n2. Pema Lingpa\nབསྟན་འཛིན་གྲགས་པ \n1536 - 1597",
  shape=plaintext,
  href="https://en.wikipedia.org/wiki/Pema_Lingpa",
  tooltip="Oral Transmission"
  ]

  dtn [
  label="Khedrup Dongak Tendzin\n1676 - 1626",
  shape=plaintext,
  href="",
  tooltip="Oral Transmission"
  ]


  rct [
  label="Rigdzin Chenpo Trinle Lhundrup\n1611 - 1662",
  shape=plaintext,
  href="",
  tooltip="Oral Transmission",
  ]

  tgd [
  label="Terchen Gyurme Dorje\nTerdak Lingpa\n1646 - 1714",
  shape=plaintext,
  href="https://www.lotsawahouse.org/de/tibetan-masters/minling-terchen/",
  tooltip="Oral Transmission",
  ]

  kmp [
  label="Kunzang Mingyur Paldrön\n1699 - 1769",
  shape=plaintext,
  href="",
  tooltip="Oral Transmission",
  ]

  grn [
  label="Gyalse Rinchen Namgyal\n1694 - 1758",
  shape=plaintext,
  href="",
  tooltip="Oral Transmission",
  ]

  kod [
  label="Khenchen Oddiyana\n1742 - 1789?",
  shape=plaintext,
  href="",
  tooltip="Oral Transmission",
  ]

  tgn [
  label="Trichen Gyurme\nTrinle Namgyal\n1765 - 1812",
  shape=plaintext,
  href="",
  tooltip="Oral Transmission",
  ]

  jtc [
  label="Jetsünma Tringle Chödrön\n 18. - 19. Jht",
  shape=plaintext,
  href="",
  tooltip="Oral Transmission",
  ]

  jkw [
  label="Jamyang Khyentsei Wangpo\n1820 - 1892",
  shape=plaintext,
  href="https://www.lotsawahouse.org/tibetan-masters/orgyen-tobgyal-rinpoche/biography-khyentse-wangpo",
  tooltip="Oral Transmission",
  ]

  add [
  label="Adzom Drukpa\nRinpoche Drodul\nPawo Dorje\n1842 - 1924",
  shape=plaintext,
  href="http://adzomgyalsetulku.com/en/index.php/adzom-drukpa/",
  tooltip="Oral Transmission"
  ]

# sec. line to Jamyang Khyentsei

  nrc [
  label="Ngak Rabjampa\nOrgyen Chödrak\n1676 - ?",
  shape=plaintext,
  href="",
  tooltip="Oral Transmission",
  ]

  nrp [
  label="Ngakyi Rabjampa\nOrgyen Palgön\nDrupwang Shrinatha",
  shape=plaintext,
  href="",
  tooltip="Oral Transmission",
  ]

  rjl [
  label="Rigdzin Jigme Lingpa\n1730 - 1798",
  shape=plaintext,
  href="https://en.wikipedia.org/wiki/Jigme_Lingpa",
  tooltip="Oral Transmission",
  ]

  jgn [
  label="Jigme Gyalwai Nyugu\n1765 - 1843",
  shape=plaintext,
  href="",
  tooltip="Oral Transmission",
  ]

# CNN ---------------------
  cnn [
  label="Chögyal Namkhai Norbu\n8.12.1938 - 27.9.2018",
  shape=plaintext,
  href="https://www.dzogchen.de/docs/biografie-von-chogyal-namkhai-norbu/",
  tooltip="Oral Transmission",
  ]

  fnn [
  label="Drolma Tsering\nFather",
  shape=plaintext,
  href="",
  tooltip="Oral Transmission",
  ]

  mnn [
  label="Yeshe Chödron\nMother",
  shape=plaintext,
  href="",
  tooltip="Oral Transmission",
  ]

  pri [
  label="Patrul Rinpoche\n1808 - 1887",
  shape=plaintext,
  href="",
  tooltip="Oral Transmission",
  ]

  tog [
  label="Togden\nUgyen Tendzin\nUnkle(Fatherside)\n? - ?",
  shape=plaintext,
  href="",
  tooltip="Oral Transmission",
  ]

  pka [
  label="Padma Karpo\n1527 - 1592",
  shape=plaintext,
  href="",
  tooltip="Oral Transmission",
  ]

  psr [
  label="Palpung Situ Rinpoche\n1886 - 1952",
  shape=plaintext,
  href="",
  tooltip="CNN Mind Inkarnation",
  ]

  dkr [
  label="Dzogchen Khen Rinpoche\n1878 - 1950",
  shape=plaintext,
  href="",
  tooltip="",
  ]

  kyr [
  label="Khyentse Yangsi Rinpoche\Unkle(Motherside)\n1910 - 1973",
  shape=plaintext,
  href="",
  tooltip="",
  ]

  cdo [
  label="Nyala Rinpoche Rigdzin -\nChangchub Dorje\n1826 - 1961",
  shape=plaintext,
  href="",
  tooltip="",
  ]

  npd [
  label="Nyala Padma Dündul",
  shape=plaintext,
  href="",
  tooltip="",
  ]

  sri [
  label="Shardza Rinpoche\n1859 - 1935",
  shape=plaintext,
  href="",
  tooltip="",
  ]

  akd [
  label="Ayu Khandro Dorje Paldrön\n1838 - 1953",
  shape=plaintext,
  href="https://en.wikipedia.org/wiki/Ayu_Khandro",
  tooltip="",
  ]








#
# https://www.lotsawahouse.org/de/topics/dzogchen/


  # Personrelation

  bre -- kdt [style="dotted"];
  khb -- kdt [style="dotted"];
  kdt -- gad [style="dotted"];
  kdt -- gad [style="dashed"];
  shs -- vac [style="dashed"];
  kdt -- vac [style="dashed"];
  vac -- yun [style="dashed"];
  yun -- drd [style="dashed"];
  drd -- lor [style="dashed"];


  sab -- b5f [style="dashed"];
  b5f -- vda [style="dashed"];
  vda -- t12 [style="dashed"];
  b5f -- gad [style="dashed"];
  gad -- mam [style="dashed"];
  mam -- shs [style="dashed"];
  shs -- vir [style="dashed"];
  vir -- ntz [style="dashed"];
  shs -- gur [style="dashed"];
  gur -- trd [style="dashed"];
  vir -- trd [style="dashed"];
  ntz -- blw [style="dashed"];
  blw -- drb [style="dashed"];
  drb -- dlg [style="dashed"];
  dlg -- csw [style="dashed"];
  csw -- gzt [style="dashed"];
  gzt -- dkn [style="dashed"];
  dkn -- guj [style="dashed"];
  guj -- tsg [style="dashed"];
  tsg -- dmd [style="dashed"];
  dmd -- rck [style="dashed"];
  rck -- lor [style="dashed"];
  gur -- yet [style="dashed"];
  trd -- pps [style="dotted"];
  qdc -- pps [style="dotted"];
  yet -- pps [style="dashed"];
  pps -- plt [style=""];
  plt -- lor [style=""];
  plt -- glg [style="dashed"];
  glg -- lor [style="dashed"];
  lor -- kcl [style="dashed"];
  kcl -- gat [style="dashed"];
  gat -- tso [style="dashed"];
  tso -- gdd [style="dashed"];

  gdd -- dk2 [style="dashed"];
  dk2 -- ckg [style="dashed"];

  ckg -- tnr [style="dashed"];
  tnr -- ttd [style="dashed"];
  ttd -- dtn [style="dashed"];
  dtn -- rct [style="dashed"];
  rct -- tgd [style="dashed"];
  tgd -- kmp [style="dashed"];
  tgd -- grn [style="dashed"];
  kmp -- kod [style="dashed"];
  kod -- tgn [style="dashed"];
  tgn -- jtc [style="dashed"];
  jtc -- jkw [style="dashed"];
  jkw -- add [style="dashed"];
  pri -- add [style="dashed"];
  add -- cnn [style=""];
  grn -- kod [style="dashed"];
  grn -- nrc [style="dashed"];
  nrc -- nrp [style="dashed"];
  nrp -- rjl [style="dashed"];
  rjl -- jgn [style="dashed"];
  jgn -- jkw [style="dashed"];
  nrc -- jtc [style="dashed"];

  fnn -- cnn [style="dotted"];
  mnn -- cnn [style="dotted"];

  add -- tog [style="dashed"];
  tog -- cnn [style="dashed"];
  tog -- cnn [style="dotted"];

  pka -- psr [style=""];
  psr -- cnn [style=""];
  dkr -- cnn [style="dashed"];
  kyr -- cnn [style="dotted"];
  kyr -- cnn [style="dashed"];

  akd -- cnn [style="dashed"];
  jkw -- akd [style="dashed"];
  cdo -- cnn [style="dashed"];
  add -- cdo [style="dashed"];
  npd -- cdo [style="dashed"];
  sri -- cdo [style="dashed"];



############################################################
# Rang #####################################################
  { rank=same; be; sab}
  { rank=same; 4, vda, b5f}
  { rank=same; 5, bre, khb}
  { rank=same; 6 gad, kdt}
  { rank=same; 7}
  { rank=same; 8, ntz, qdc}
  { rank=same; 9, blw, pps, yet}
  { rank=same; 10, dlg}
  { rank=same; 11, gzt}
  { rank=same; 12, dkn}
  { rank=same; 13, tsg, plt}
  { rank=same; 14, lor}
  { rank=same; 15, dk2}
  { rank=same; 16, tnr, pka}
  { rank=same; 17, dtn}
  { rank=same; 18, tgd}
  { rank=same; 19, tgn,psr}
  { rank=same; 20, add}
  { rank=same; 21, cnn}

###########################################################
# Timelabel

  be [label="long ago", shape=box]

  8 [label="8. Jht", shape=box]
  9 [label="9. Jht", shape=box]
  10 [label="10. Jht", shape=box]
  11 [label="11. Jht", shape=box]
  12 [label="12. Jht", shape=box]
  13 [label="13. Jht", shape=box]
  14 [label="14. Jht", shape=box]
  15 [label="15. Jht", shape=box]
  16 [label="16. Jht", shape=box]
  17 [label="17. Jht", shape=box]
  18 [label="18. Jht", shape=box]
  19 [label="19. Jht", shape=box]
  20 [label="20. Jht", shape=box]
  21 [label="21. Jht", shape=box]




# Legende

  a [shape="box", label="Die Dzogchen Übertragungslinie\l\lLegende:\lverwand ....... \lLehrer-Schüler ------- \lReinkarnation _____\l\lUNVOLLSTÄNGIG & UNGEPRÜFT"];

# help point for structure
  4 [style="invis"];
  5 [style="invis"];
  6 [style="invis"];
  7 [style="invis"];


  }
